qubo_stable,qubo_size,qubo_dt[s],lp_stable,lp_size,lp_dt[s],shiftbrk_stable,shiftbrk_size,shiftbrk_dt[s],kiraly_stable,kiraly_size,kiraly_dt[s]
True,5,0.07621730409998691,True,5,0.005498867999995128,True,5,0.001231614899984379,True,5,0.00120159779999085
True,2,0.07749179850000018,True,2,0.0053792331000067865,True,2,0.0012192293999987668,True,2,0.0012039796999943064
True,1,0.00036117939998803195,True,1,0.005335656900001595,True,1,0.0002863050000087242,True,1,0.0011366192999958003
True,2,0.07762334579999788,True,2,0.005404425500000798,True,2,0.0012861122999993312,True,2,0.0012711393000017779
True,5,0.09947032580000723,True,5,0.005747688899987224,True,5,0.0013403983999978665,True,5,0.0013089948000015283
True,4,0.07386339029999363,True,4,0.005463002999999844,True,4,0.0013120080999897254,True,4,0.001279771500003335
True,2,0.07162268760000642,True,2,0.00549194070001704,True,2,0.0011791549999998097,True,2,0.0011572454000088328
True,2,0.07759192369999254,True,2,0.005433322999988377,True,2,0.00124483509998754,True,2,0.0012192071000072247
True,4,0.07584202830000777,True,4,0.005633945799991125,True,4,0.00029273250002006537,True,4,0.001163068400001066
True,3,0.07192644290000771,True,3,0.00558774999999514,True,3,0.0013443297999856441,True,3,0.0013194843000064794
True,5,0.09485502689999521,True,5,0.005634472900010223,True,5,0.0013102038000170069,True,5,0.001265979699996933
True,3,0.0716069128999834,True,3,0.0056314872000029935,True,3,0.0013786709000214615,True,3,0.0013535774000047241
True,5,0.09012123110001084,True,5,0.005633537200014871,True,5,0.0013821468000060123,True,5,0.0013308198000004268
True,3,0.07172028830000272,True,3,0.005418341199992937,True,3,0.001268218999985038,True,3,0.001232103699999243
True,5,0.07633473379999031,True,5,0.005516514800001459,True,5,0.002907752999999502,True,5,0.0012785636999979033
True,3,0.07185869960001127,True,3,0.0054213693000065176,True,3,0.0011737963999848943,True,3,0.001135787800012622
True,3,0.0753903383000079,True,3,0.00560125380000045,True,3,0.0013591309000048567,True,3,0.001319280500001696
True,2,0.07811641870000585,True,2,0.0053592364999985875,True,2,0.0011330335999900853,True,2,0.0011245412999869586
True,2,0.0774926927000024,True,2,0.00544233840000743,True,2,0.001149237999993602,True,2,0.0011383102999843685
True,3,0.0719001844000104,True,3,0.005445264999980282,True,3,0.0012217107999958898,True,3,0.0011961229999997158
True,3,0.07085042809999323,True,3,0.005541449200018178,True,3,0.0011962572000129511,True,3,0.0011699720000024171
True,3,0.071705271299993,True,3,0.005414518299994597,True,3,0.0011851281999952334,True,3,0.0011703625999871293
True,3,0.0717248771999948,True,3,0.005546624799990241,True,3,0.001184978600008435,True,3,0.0011651430000028996
True,2,0.07682913429998735,True,2,0.005419553799993082,True,2,0.0011325747000000773,True,2,0.0011135932000115646
True,3,0.07169229419998828,True,3,0.005418534099999306,True,3,0.0003058779999946637,True,3,0.0011995707000096445
True,2,0.07747704040000372,True,2,0.005364656899996589,True,2,0.0010687507999818991,True,2,0.0010571273000095972
True,3,0.07394416919999003,True,3,0.005389434600010646,True,3,0.00028557099999488856,True,3,0.0011225478000142174
True,1,0.0003807868999956554,True,1,0.005322361300000011,True,1,0.001189387399995212,True,1,0.0011781682999981058
True,3,0.07103627469998627,True,3,0.005686099700005798,True,3,0.0012617225999974834,True,3,0.0012403168999981062
True,4,0.09016353069998786,True,4,0.0057117662000109705,True,4,0.0013316995999957727,True,4,0.0012948424999876806
True,3,0.07613368920001448,True,3,0.0055551762000050076,True,3,0.0024635744999841336,True,3,0.0010913157000004502
True,2,0.07269545849999304,True,2,0.005530773700002101,True,2,0.001263275800010888,True,2,0.0012329679999993459
True,4,0.07165425400000913,True,4,0.005444716300007713,True,4,0.0011621390999835058,True,4,0.001143187200000284
True,3,0.0771422439999924,True,3,0.005677061400001548,True,3,0.0011723859000085212,True,3,0.0011446097000089139
True,2,0.07817942829999538,True,2,0.005674487400006001,True,2,0.001387919800004056,True,2,0.0013479905999929543
True,3,0.07146755349999694,True,3,0.00558037329999479,True,3,0.0011863292000043658,True,3,0.0011546931000111726
True,1,0.07695190179999827,True,1,0.005507393400012006,True,1,0.0012418837000041094,True,1,0.0012177130999816653
True,3,0.07181734920000053,True,3,0.005522300300003735,True,3,0.0012758778000033998,True,3,0.0012475261999952635
True,4,0.07221417289999862,True,4,0.005470887899991794,True,4,0.0002932937999958085,True,4,0.001159304400016481
True,3,0.07166749190000701,True,3,0.005553080399999999,True,3,0.001258492700003444,True,3,0.0012367624999797045
True,1,0.00036132109999016394,True,1,0.005356073899997682,True,1,0.0011348521999934747,True,1,0.0011165268000013385
True,2,0.07214946680001048,True,2,0.005811802800008081,True,2,0.0011784670999986703,True,2,0.0011531651000041166
True,4,0.07553621340000519,True,4,0.005666262199997618,True,4,0.0011795773999892845,True,4,0.0011643746999880022
True,3,0.07159937730000365,True,3,0.0054355068999939245,True,3,0.0012562638999952468,True,3,0.0012474911000026623
True,3,0.07720142589998887,True,3,0.0055288063000034525,True,3,0.001243248700006916,True,3,0.001207970999985264
True,3,0.07241871210001136,True,3,0.005617680899990774,True,3,0.0012038551000159714,True,3,0.001191314099992269
True,2,0.07761673279999286,True,2,0.005496373900018625,True,2,0.0012371599999823958,True,2,0.0012121375000106126
True,3,0.07147682370000438,True,3,0.005536768000001757,True,3,0.00031797350000033474,True,3,0.001235835500006033
True,2,0.07746148250000714,True,2,0.005368104699982723,True,2,0.0011739906999991944,True,2,0.0011539198999798827
True,3,0.07165915030000178,True,3,0.005437362999987272,True,3,0.0002870909999955984,True,3,0.0011313484999845968
