qubo_stable,qubo_size,qubo_dt[s],lp_stable,lp_size,lp_dt[s],shiftbrk_stable,shiftbrk_size,shiftbrk_dt[s],kiraly_stable,kiraly_size,kiraly_dt[s]
True,5,0.10118827370001782,True,5,0.011303724399977,True,5,0.0021289561999765284,True,5,0.0022541813999851002
True,5,0.0790222864000043,True,5,0.010924174299998413,True,5,0.004560402299966881,True,5,0.002155861599976561
True,5,0.09102908869999737,True,5,0.011168616700024359,True,5,0.0021541097000408625,True,5,0.0022518430999753035
True,3,0.07307143139996697,True,3,0.01089094720000503,True,3,0.004659795700035829,True,3,0.0021917142000347665
True,7,0.10771914860001744,True,7,0.011298151300024983,True,7,0.005104800500021156,True,7,0.0023808941999959644
True,6,0.09428070139997544,True,6,0.011487191400010487,True,6,0.0022518858999774237,True,6,0.002352441599987287
True,2,0.07334293180001623,True,2,0.011078871099971365,True,2,0.002121396399979858,True,2,0.002204679099986606
True,1,0.0006743241000094713,True,1,0.01077835529999902,True,1,0.004312467600038871,True,1,0.0020251372000075207
True,6,0.09176322449998224,True,6,0.010945577800021056,True,6,0.0020045600999765156,True,6,0.00214405709998573
True,5,0.09800988970000617,True,5,0.011163262900026893,True,5,0.002092422899977464,True,5,0.002212803400016128
True,5,0.09854194129998177,True,5,0.011313742200036359,True,5,0.002038336400028129,True,5,0.0021354005999910442
True,5,0.07719589949997499,True,5,0.011208519100000558,True,5,0.0019792293000136852,True,5,0.0021074607000173273
True,5,0.0916220482999961,True,5,0.011369132499976332,True,5,0.002065225299975282,True,5,0.002187535900020521
True,5,0.09474134460001551,True,5,0.01120765460000257,True,5,0.0021126691000063146,True,5,0.0022472432000085973
True,3,0.0914429286000086,True,3,0.011247396199996729,True,3,0.004991048400006548,True,3,0.00235267319999366
True,4,0.09510969689999911,True,4,0.011592852500007212,True,4,0.0021036941999682313,True,4,0.0022491064999940135
True,7,0.0984609318999901,True,7,0.011214493600027709,True,7,0.002183799699969313,True,7,0.0023095240999737145
True,4,0.07693390909998925,True,4,0.010937170299985154,True,4,0.0020885674000055586,True,4,0.0022308825999971305
True,5,0.09837079619996984,True,5,0.011333045799983666,True,5,0.002008332200011864,True,5,0.002124213700017208
True,6,0.09693906780003089,True,6,0.011159111500001017,True,6,0.004453993200013428,True,6,0.0021080368000184536
True,7,0.09917780190003214,True,7,0.011426938800013886,True,7,0.00230670559999453,True,7,0.0023961978999977873
True,8,0.08325503850001041,True,8,0.011716124999975364,True,8,0.002258132699989801,True,8,0.002402462000009109
True,5,0.08065307300003041,True,5,0.01087961709999945,True,5,0.004808267599992177,True,5,0.00224938999999722
True,5,0.09527513749999343,True,5,0.011451380199969208,True,5,0.0020249653000064425,True,5,0.002152944299996307
True,4,0.09201441219997833,True,4,0.011220430799994574,True,4,0.002079990899983386,True,4,0.002199747400027263
True,5,0.09470407339999838,True,5,0.01130777820003459,True,5,0.002261911899995539,True,5,0.0023944810000102734
True,6,0.09227490660000512,True,6,0.01091366979999293,True,6,0.004695246300025246,True,6,0.0021855670000149987
True,5,0.09297521170001347,True,5,0.011260600599962345,True,5,0.005060764300014853,True,5,0.002362751200007551
True,5,0.09912715820000813,True,5,0.011244424100004835,True,5,0.0021136415999990278,True,5,0.002237643099988418
True,5,0.09863826040000276,True,5,0.011229585000000953,True,5,0.002043789999970613,True,5,0.002177092800002356
True,3,0.07240603309996914,True,3,0.010795226300024297,True,3,0.0021767260000160604,True,3,0.0021753798999725404
True,4,0.07702770500000042,True,4,0.011045662400010769,True,4,0.0021618009000121674,True,4,0.0023129837999931622
True,5,0.09458620569998857,True,5,0.01115397190001204,True,5,0.002160147999984474,True,5,0.0029428488000121434
True,4,0.07628556689996913,True,4,0.011015774199995576,True,4,0.004917514399994616,True,4,0.0023142220999943673
True,4,0.0990742396999849,True,4,0.011142177300007461,True,4,0.0022748198000044793,True,4,0.002377942700013591
True,4,0.07235402329997669,True,4,0.010821950500030653,True,4,0.004418564600018726,True,4,0.0021047988000191253
True,4,0.10823154629997589,True,4,0.011842528599981961,True,4,0.0022315136000088387,True,4,0.002331311099987943
True,3,0.0723635755000032,True,3,0.010785778400031632,True,3,0.002145520200019746,True,3,0.0022246993999942787
True,6,0.09077917019999404,True,6,0.010925440999972124,True,6,0.002040928599990366,True,6,0.0021575596000275254
True,3,0.07244415519999166,True,3,0.010991312099986317,True,3,0.004780347099995197,True,3,0.0022576121999918542
True,4,0.0975813922999805,True,4,0.01110937059997923,True,4,0.0020676646000083567,True,4,0.0021965376000025573
True,6,0.0948209191999922,True,6,0.011234400700004699,True,6,0.0021447093000006136,True,6,0.002215257299985751
True,7,0.11717292009998345,True,7,0.011615424999990864,True,7,0.0023220637000122223,True,7,0.0024607984000340364
True,4,0.0916603524999573,True,4,0.011100071800001388,True,4,0.0020526820999748454,True,4,0.0022030141999948684
True,4,0.09160965760002,True,4,0.011176500900000974,True,4,0.0021552019999944603,True,4,0.002233629000011206
True,3,0.09038630160002867,True,3,0.011015446199962753,True,3,0.004714037400026428,True,3,0.002207580599997527
True,5,0.097784732800028,True,5,0.011008442000002106,True,5,0.002077627600010601,True,5,0.0021997336999902473
True,3,0.09922034400001394,True,3,0.011227469899995412,True,3,0.001990271299973756,True,3,0.002122707100033949
True,7,0.09869147389999852,True,7,0.01133922789999815,True,7,0.002090718699992067,True,7,0.002216362200033473
True,4,0.07728327649997482,True,4,0.010955870899988441,True,4,0.0019353922999926,True,4,0.0020515509999768254
