qubo_stable,qubo_size,qubo_dt[s],lp_stable,lp_size,lp_dt[s],shiftbrk_stable,shiftbrk_size,shiftbrk_dt[s],kiraly_stable,kiraly_size,kiraly_dt[s]
True,18,0.7212730643999749,True,18,0.033416922600008545,True,18,0.015151573699995424,True,17,0.006787249999979395
True,19,0.6784169657999882,True,19,0.030695972600005915,True,19,0.01571018060003553,True,19,0.007087958199963396
True,19,0.7891138598999987,True,19,0.03855180000000473,True,19,0.02690847849999045,True,19,0.006842652499972246
True,19,0.6831962449000002,True,19,0.029062160400007996,True,19,0.015613277400007064,True,18,0.007034923499986689
True,19,0.6607684284000243,True,20,0.03129188460002297,True,20,0.015303216500024064,True,18,0.00693566270001611
True,18,0.7701447519999874,True,18,0.03171791019999546,True,18,0.01610384820000945,True,18,0.00732758589997502
True,18,0.6205541639999865,True,18,0.027985634400010895,True,18,0.015047024699970279,True,18,0.006805041100005837
True,19,0.5889804409999669,True,19,0.028321672299989588,True,19,0.027790550000008806,True,19,0.007128226300028473
True,19,0.8614627114000086,True,19,0.029139263099978052,True,19,0.026518134899970392,True,19,0.006848676500021611
True,19,0.7968916897999861,True,19,0.0353806459000225,True,19,0.016586902400013058,True,19,0.007559550599989961
True,19,0.8352894070000275,True,19,0.03539426679999451,True,19,0.027155411400008232,True,19,0.006975498399970093
True,19,0.7360686729000008,True,19,0.03346865200001048,True,19,0.015429244100005235,True,19,0.006997212399983255
True,19,0.9985251385000083,True,19,0.03663308740001412,True,19,0.028214725199995884,True,19,0.007119880600021134
True,19,0.7788296201999856,True,19,0.029513643300015248,True,19,0.015108008400011386,True,19,0.0068804710999756935
True,20,0.7850145378999969,True,20,0.036802668500013166,True,20,0.01502081100002215,True,20,0.0035863949000031425
True,19,0.7133137152000018,True,19,0.03198174240001208,True,19,0.014764148299991574,True,19,0.006823792800014416
True,19,0.8902484571000059,True,19,0.03538410300002397,True,19,0.016312793199995214,True,19,0.007312249400001747
True,18,0.8564558082000076,True,18,0.035267122000004744,True,18,0.028454193400011717,True,18,0.007400801699986914
True,18,0.7403908260000207,True,18,0.03311430919998202,True,18,0.01455137879997892,True,18,0.006688507299986668
True,19,0.8652028094999877,True,19,0.04063777050000681,True,19,0.01640384540000923,True,19,0.007392747500034602
True,19,0.7129464208000172,True,19,0.030862981000018407,True,19,0.03978985869998723,True,19,0.0064612884999860395
True,18,0.6530474539999886,True,18,0.031072185199991508,True,18,0.015295501599985073,True,18,0.006931944600000861
True,19,0.6891494691999924,True,19,0.033082823800032204,True,19,0.015205469500006074,True,19,0.0068907867000234544
True,18,0.8116019154999776,True,18,0.03194179980000626,True,17,0.01542252140002347,True,17,0.0070102450999911525
True,19,0.6482557827999699,True,19,0.03254745420003928,True,19,0.014917511199973888,True,19,0.0068558929000118955
True,19,0.7190470303999973,True,19,0.02971184580001136,True,19,0.006566170199994304,True,19,0.006810624199988524
True,20,0.9321301635000054,True,20,0.03844451679997292,True,20,0.014964833800013367,True,19,0.006818878000012773
True,19,0.6874030340999979,True,19,0.03367075319997639,True,18,0.014481130500007567,True,18,0.006608709000011004
True,19,0.8432732475000193,True,19,0.03211406499999612,True,19,0.015500256500035902,True,19,0.00709919149999223
True,18,0.8296709770999768,True,18,0.030638323499988473,True,18,0.014903503000005003,True,18,0.006751715100017463
True,17,0.7229048445999979,True,17,0.03395653360003052,True,17,0.0417949027999839,True,17,0.006838951100007762
True,19,0.9355177969999658,True,19,0.03465944979998312,True,19,0.042759559600017386,True,19,0.0070487721000063175
True,18,0.7382327268999689,True,18,0.030479590899994947,True,18,0.015713814899982026,True,18,0.007124516400017456
True,18,0.9032302323999829,True,18,0.03678173200000856,True,18,0.015897591200018723,True,18,0.007116845100017599
True,19,0.6780574569000237,True,19,0.03202647260000049,True,19,0.015008350000016435,True,19,0.006795469200005755
True,19,0.9053779279000083,True,19,0.04068881470002452,True,18,0.015914686799987976,True,18,0.007133370800011108
True,19,0.7043077984999855,True,19,0.030822330000000876,True,19,0.014783950299988646,True,19,0.006769472599989968
True,19,0.5814783679999891,True,19,0.03074756629998774,True,19,0.015518163199976698,True,19,0.007092524500012587
True,18,0.5668531460999929,True,18,0.0275359582999954,True,18,0.042642913800000314,True,18,0.006968635100020037
True,19,0.7390499317999911,True,19,0.030098379399987607,True,19,0.014771349600005123,True,19,0.006768685600036406
True,18,1.112361630899977,True,18,0.03686054849999891,True,18,0.016438058499988983,True,18,0.007409740899993267
False,19,0.5548579069999959,True,18,0.02695845780003765,True,18,0.01518727489997218,True,18,0.006891763100020399
True,19,0.720832409400009,True,19,0.03351881189996675,True,19,0.015129734800029836,True,19,0.006921163200013325
True,18,0.7146795509000186,True,18,0.028914293699972404,True,18,0.015591605299960065,True,18,0.0070521896999707675
True,17,0.7386462422000022,True,17,0.03222804849997374,True,17,0.00720361030003005,True,17,0.007333259000006365
True,18,1.1021260904999963,True,18,0.037929523200000405,True,18,0.04371237629998177,True,18,0.007200480300025447
True,18,0.7839886281999953,True,18,0.03374225719999231,True,18,0.014993500199989285,True,17,0.006836750799993752
True,19,0.7714034697999977,True,19,0.03320334420000108,True,19,0.006572726100012005,True,19,0.006786057900035303
True,18,0.7237706242000058,True,18,0.03027888639999219,True,18,0.015246182600003521,True,18,0.006846518499969534
True,18,0.763135149000027,True,18,0.030849459599994588,True,18,0.014600354100002733,True,18,0.006682151300037731
