qubo_stable,qubo_size,qubo_dt[s],lp_stable,lp_size,lp_dt[s],shiftbrk_stable,shiftbrk_size,shiftbrk_dt[s],kiraly_stable,kiraly_size,kiraly_dt[s]
True,8,0.22236529159999918,True,8,0.009485561000019516,True,8,0.004580046700016283,True,8,0.001151909500003967
True,8,0.24504491489999508,True,8,0.010752430299999106,True,8,0.004958419200011122,True,8,0.0011653619000071558
True,8,0.26347627680002006,True,8,0.009908866000000672,True,8,0.004685525000013513,True,7,0.0019562855000003765
True,8,0.22476398169999356,True,8,0.013948175299992727,True,8,0.001916903699998329,True,8,0.0010401450000017576
True,8,0.2437738377999949,True,8,0.010714130099995601,True,8,0.0020298062000165375,True,8,0.001132243600000038
True,8,0.23624813709998307,True,8,0.0096058444999926,True,8,0.004580390499995701,True,8,0.0011422613999911846
True,7,0.2434512414999972,True,7,0.012135501099987778,True,7,0.0018988461000162716,True,7,0.0017150581000123567
True,8,0.2847615539000117,True,8,0.012223545999995622,True,8,0.002022023299991815,True,7,0.00180483029998868
True,8,0.2496103854000012,True,8,0.00950579560001188,True,8,0.004429483199987772,True,8,0.0010739054999930886
True,8,0.22586856279999665,True,8,0.011820619399986753,True,8,0.001996037100002468,True,8,0.0011292092999838133
True,8,0.24123501520000445,True,8,0.01092442490000849,True,8,0.004237416599994504,True,7,0.001706459999991239
True,8,0.25087004229999366,True,8,0.01117518650000875,True,8,0.004490925300001436,True,8,0.001096119500016357
True,8,0.2543136726999819,True,8,0.009912709399986851,True,8,0.0043779198000038376,True,7,0.0017630305000011504
True,8,0.2294718261000071,True,8,0.008878596699992159,True,8,0.004662364999990132,True,8,0.0011792568000146275
True,8,0.2559282757000119,True,8,0.01347237889999633,True,8,0.004398381800001516,True,8,0.0010678706000135207
True,8,0.22512551390000227,True,8,0.008955495300006078,True,8,0.0019862213000124028,True,8,0.0011189077999915753
True,8,0.23652580620000663,True,8,0.011367137100000946,True,8,0.004327672600015831,True,8,0.0010355501000049116
True,8,0.24150314720000096,True,8,0.01128882349999003,True,8,0.0077535761000035565,True,8,0.0010446580999996513
True,8,0.23918994470000143,True,8,0.010356454900011159,True,8,0.002062382899998738,True,8,0.0011640983999996024
True,8,0.2546545176999871,True,8,0.013507804999994733,True,8,0.0019711659999984477,True,8,0.0010782196000036492
True,8,0.22821253399999933,True,8,0.009934762199986836,True,8,0.001919669599988083,True,8,0.0010724607000156539
True,8,0.24011747419999666,True,8,0.009752650800010088,True,8,0.0044049849999964865,True,8,0.0011153904000138937
True,8,0.22638188800001444,True,8,0.010025489400004518,True,8,0.004251035100014633,True,8,0.0010775479000130872
True,7,0.23453454719999628,True,7,0.01052748239999346,True,7,0.004660300300020026,True,7,0.0018423705000031986
True,8,0.2389995165000073,True,8,0.01079982660000951,True,8,0.004499085199995534,True,8,0.0010923324000032153
True,7,0.22611461000001326,True,7,0.0090836298999875,True,7,0.004246320700008255,True,7,0.0016987909000135914
True,8,0.20149443569998765,True,8,0.012622150299989698,True,8,0.0017742208000072423,True,8,0.0009699030999854585
True,8,0.2336176875999854,True,8,0.010285370799988414,True,8,0.0019071080999992773,True,8,0.0010622724000086236
True,8,0.2422626763999915,True,8,0.011671061199990618,True,8,0.00435921870000584,True,8,0.0010804033999875172
True,8,0.2389485444999991,True,8,0.008971150100001069,True,8,0.002035794200014607,True,8,0.001137175799999568
True,8,0.25024353409999095,True,8,0.01025519230001919,True,8,0.0019057937000070524,True,8,0.0010699119000037172
True,8,0.2335388662000014,True,8,0.010912178800003858,True,8,0.0043226010000125825,True,8,0.0010575711999990744
True,8,0.24877407230001153,True,8,0.011551443700000164,True,8,0.0019102274000033503,True,8,0.001064466699995137
True,7,0.24827618190001885,True,7,0.011105522100001508,True,7,0.004346166200002699,True,7,0.0017502745000001596
True,7,0.21064077500000167,True,7,0.009186262000002898,True,7,0.0019177336999973704,True,7,0.0017302903999961926
True,8,0.26963035240000865,True,8,0.013114703900009772,True,8,0.0019464846000118996,True,8,0.001068860999998833
True,7,0.27204704820001097,True,7,0.009672404200000529,True,7,0.001964392699983364,True,7,0.0018063667999967947
True,8,0.25400544380001977,True,8,0.011701382499995815,True,8,0.0021518923000030553,True,8,0.001230345099997976
True,8,0.2215655853000044,True,8,0.012880728800018915,True,8,0.004355348300009609,True,8,0.0010644335000051797
True,8,0.25978235379998293,True,8,0.012917876200003776,True,8,0.0020522833999848445,True,8,0.0012266645999943649
True,8,0.23623345390001305,True,8,0.01496088819999386,True,8,0.004503566099992895,True,8,0.0010929743999895437
True,8,0.22343366169998263,True,8,0.008807243599994763,True,8,0.0018003983999960837,True,8,0.0010005485999954543
True,8,0.23971233669999492,True,8,0.009865782799988666,True,8,0.004330471999992369,True,8,0.0010780473000068015
True,8,0.23941143679999186,True,8,0.01561581160001424,True,8,0.004683250400012185,True,8,0.0011733246999938273
True,8,0.2523657722000053,True,8,0.0105958069000053,True,8,0.0044845685999916896,True,8,0.00180015779999394
True,8,0.24188492559999303,True,8,0.011204591800014896,True,8,0.0018701718000102118,True,8,0.001022354799988534
True,8,0.2249559981999937,True,8,0.009838891799995508,True,8,0.0042883120000169585,True,8,0.0010479336000116745
True,8,0.25565713519999916,True,8,0.012722344999997404,True,8,0.00450579949999792,True,8,0.0011582425000142393
True,8,0.24390121920000638,True,8,0.010072719599997981,True,8,0.0020283779999999752,True,8,0.001154080200012686
True,8,0.26555414770000424,True,8,0.01257887720000781,True,8,0.004306348000000071,True,8,0.001056112000014764
